{
  "count": 1539,
  "next": "http://localhost:8000/api/testmethod_perf/?format=json&page=2&repo=Cumulus",
  "previous": null,
  "results": [
    {
      "method_name": "1 Create Level and Verify Fields",
      "duration_average": 31.3025384615385
    },
    {
      "method_name": "2 Edit Level and Verify Fields",
      "duration_average": 7.293
    },
    {
      "method_name": "3 Validate Level Assignment in Batch Job",
      "duration_average": 98.3326666666667
    },
    {
      "method_name": "4 Delete Level and Validate Contact",
      "duration_average": 8.18766666666667
    },
    {
      "method_name": "accFinderBuildsCorrectSearchQuery",
      "duration_average": 573.295774647887
    },
    {
      "method_name": "accountHardCreditRollupGeneratesIncrementalModeJoinQuery",
      "duration_average": 382.253521126761
    },
    {
      "method_name": "accountHardCreditRollupGeneratesLastNDaysJoinQuery",
      "duration_average": 128.112676056338
    },
    {
      "method_name": "accountHardCreditRollupGeneratesLastNDaysJoinQueryWithCustomSettingFalse",
      "duration_average": 133.957746478873
    },
    {
      "method_name": "accountHardCreditRollupGeneratesLastNYearsJoinQuery",
      "duration_average": 127.408450704225
    },
    {
      "method_name": "accountHardCreditRollupGeneratesStandardJoinQueryWhenNotScheduledJob",
      "duration_average": 123.816901408451
    },
    {
      "method_name": "accountHardCreditRollupWithUserDefinedJoinGeneratesProperJoinQuery",
      "duration_average": 124.408450704225
    },
    {
      "method_name": "accountViewOverride",
      "duration_average": 584.070422535211
    },
    {
      "method_name": "ACCT_IndividualAccounts_TEST",
      "duration_average": 14.8591549295775
    },
    {
      "method_name": "Add Existing Contact to Existing Household",
      "duration_average": 19.679
    },
    {
      "method_name": "Add Existing Contact to Existing Household through Manage Household Page",
      "duration_average": 23.3359230769231
    },
    {
      "method_name": "Add New Address to Household",
      "duration_average": 44.516
    },
    {
      "method_name": "Add New Contact to Existing Household",
      "duration_average": 18.4921923076923
    },
    {
      "method_name": "Add New Contact to Household With Different LastName",
      "duration_average": 28.8404615384615
    },
    {
      "method_name": "addContactCheckAccountPrimaryContact",
      "duration_average": 1237.07042253521
    },
    {
      "method_name": "addContactCheckNumberHHMembers",
      "duration_average": 1055.46478873239
    },
    {
      "method_name": "addExistingContactToNewHouseholdShouldSyncPrimaryAddressTypeWithAddressType",
      "duration_average": 1416.70422535211
    },
    {
      "method_name": "addNewContactToHouseholdShouldSyncPrimaryAddressTypeWithAddressType",
      "duration_average": 1012.43661971831
    },
    {
      "method_name": "addressShouldBePropagatedToAccountsAndContactsOnMultipleTriggerCalls",
      "duration_average": 20652.1971830986
    },
    {
      "method_name": "adjustDayOfMonthReturnsDateBasedOnEstablishedDay",
      "duration_average": 58.2957746478873
    },
    {
      "method_name": "adjustDayOfMonthReturnsDateBasedOnNextDonationDay",
      "duration_average": 12.112676056338
    },
    {
      "method_name": "adjustDayOfMonthReturnsDayOfMonthSelected",
      "duration_average": 11.169014084507
    },
    {
      "method_name": "adjustDayOfMonthReturnsEndOfMonthWhenAlwaysEndOfMonthIsSet",
      "duration_average": 11.7605633802817
    },
    {
      "method_name": "adjustDayOfMonthReturnsSameDateWhenNextDonationNotEndOfMonth",
      "duration_average": 11.1971830985915
    },
    {
      "method_name": "adjustDayOfMonthReturnsSameDateWhenNotEndOfMonthDay",
      "duration_average": 11.4084507042254
    },
    {
      "method_name": "alloMultiCurrency",
      "duration_average": 26.8169014084507
    },
    {
      "method_name": "ASC Reciprocal Relationship Test Case 1",
      "duration_average": 43.6156666666667
    },
    {
      "method_name": "Assign GAU to Opportunity",
      "duration_average": 32.0226666666667
    },
    {
      "method_name": "attachToHHAccount",
      "duration_average": 790.507042253521
    },
    {
      "method_name": "attachToIndividualAccount",
      "duration_average": 331.957746478873
    },
    {
      "method_name": "avoidDuplicateCRs",
      "duration_average": 2213.39436619718
    },
    {
      "method_name": "batchCreateMixedMembers",
      "duration_average": 11308.5774647887
    },
    {
      "method_name": "batchStatusBarTest",
      "duration_average": 43.9577464788732
    },
    {
      "method_name": "BGE Batch With Custom Values",
      "duration_average": 36.5635
    },
    {
      "method_name": "BGE Batch With Default Values",
      "duration_average": 19.5955
    },
    {
      "method_name": "buildCreatesEmptyOrderByClauseWhenFieldsAreNotProvided",
      "duration_average": 30.943661971831
    },
    {
      "method_name": "buildReturnsEmptyOrderByClauseWhenAFieldIsNotSortable",
      "duration_average": 7.94366197183099
    },
    {
      "method_name": "buildReturnsOrderByClauseWhenAllFieldsAreSortable",
      "duration_average": 8.8169014084507
    },
    {
      "method_name": "bulkInsertOpportunities",
      "duration_average": 11593.2112676056
    },
    { "method_name": "bulkOppInsert", "duration_average": 5139.38028169014 },
    {
      "method_name": "callableApiThrowsExceptionWhenActionIsInvalid",
      "duration_average": 27.1492537313433
    },
    {
      "method_name": "campaignAllocations",
      "duration_average": 1079.29577464789
    },
    {
      "method_name": "Change Naming on Manage Household Page",
      "duration_average": 45.7663333333333
    },
    {
      "method_name": "changeContactOwners",
      "duration_average": 1783.46478873239
    },
    {
      "method_name": "changeContactsCheckOpps",
      "duration_average": 2265.15492957746
    },
    {
      "method_name": "changeFromOneToOneToHouseholdAccount",
      "duration_average": 1208.80281690141
    }
  ]
}
